Reproducible Research-Course Project 2
…
The Total.Crop.Damage variable the value for OTHERS category is much higher, almost double, than Flood which has the most Crop Damage value. So, we should explore which event is the reason for that.

datasub <- Storm.Data
datasub <- Storm.Data[Storm.Data$EVENTS == "OTHERS",]
datasub <- datasub %>% group_by(EVTYPE) %>% summarise(total = sum(CROPDMG))
datasub[order(datasub$total, decreasing = TRUE), ]

## # A tibble: 391 x 2
##    EVTYPE                  total
##    <chr>                   <dbl>
##  1 DROUGHT           13972566000
##  2 HURRICANE          2741910000
##  3 HURRICANE/TYPHOON  2607872800
##  4 EXTREME COLD       1292973000
##  5 FROST/FREEZE       1094086000
##  6 FREEZE              446225000
##  7 WILDFIRE            295472800
##  8 DAMAGING FREEZE     262100000
##  9 EXCESSIVE WETNESS   142000000
## 10 HURRICANE ERIN      136010000
## #  with 381 more rows
…
